Circuit: * C:\Users\Ankan Mukherjee\OneDrive - Indian Institute of Technology Bombay\Ankan\Studies\IITB\SEM V\PH 230\Lab06\Draft2.asc

.OP point found by inspection.

Date: Sat Sep 25 17:24:05 2021
Total elapsed time: 0.069 seconds.

tnom = 27
temp = 27
method = modified trap
totiter = 22944
traniter = 22944
tranpoints = 9745
accept = 9032
rejected = 713
matrix size = 11
fillins = 7
solver = Normal
Matrix Compiler1: 922 bytes object code size  0.1/0.1/[0.0]
Matrix Compiler2: 931 bytes object code size  0.1/0.1/[0.0]

