Version 4
SHEET 1 1664 680
WIRE -464 -176 -496 -176
WIRE -368 -176 -384 -176
WIRE 800 -112 704 -112
WIRE 1136 -112 880 -112
WIRE 1280 -112 1136 -112
WIRE -464 -80 -528 -80
WIRE -368 -80 -368 -176
WIRE -368 -80 -464 -80
WIRE -224 -80 -368 -80
WIRE -160 -80 -224 -80
WIRE 240 -80 -160 -80
WIRE 1136 -80 1136 -112
WIRE 1024 -16 816 -16
WIRE 416 0 240 0
WIRE 240 32 240 0
WIRE 816 32 816 -16
WIRE 1136 32 1136 -16
WIRE -528 80 -528 0
WIRE -528 80 -672 80
WIRE -464 80 -464 0
WIRE -224 80 -224 0
WIRE -160 80 -160 0
WIRE -64 80 -160 80
WIRE 48 80 -64 80
WIRE 176 80 128 80
WIRE 1024 80 1024 -16
WIRE 1280 80 1280 -112
WIRE 1408 80 1280 80
WIRE 1440 80 1408 80
WIRE 1536 80 1504 80
WIRE 1584 80 1536 80
WIRE -672 112 -672 80
WIRE 416 112 416 80
WIRE 496 112 416 112
WIRE 704 112 704 -112
WIRE 704 112 560 112
WIRE -528 144 -528 80
WIRE -160 144 -160 80
WIRE -64 144 -64 80
WIRE 416 160 416 112
WIRE 704 160 704 112
WIRE 816 160 816 112
WIRE 816 160 704 160
WIRE 1584 160 1584 80
WIRE 816 176 816 160
WIRE -464 192 -224 80
WIRE -224 192 -464 80
WIRE -672 256 -672 192
WIRE -528 256 -528 240
WIRE -528 256 -672 256
WIRE -336 256 -528 256
WIRE -160 256 -160 240
WIRE -160 256 -336 256
WIRE -64 256 -64 224
WIRE -64 256 -160 256
WIRE 240 256 240 128
WIRE 240 256 -64 256
WIRE 416 256 416 240
WIRE 416 256 240 256
WIRE -336 304 -336 256
WIRE 816 320 816 256
WIRE 1024 320 1024 160
WIRE 1024 320 816 320
WIRE 1584 320 1584 240
WIRE 1024 400 1024 320
FLAG -336 304 0
FLAG -496 -176 0
FLAG 1408 80 x
FLAG 1536 80 y
FLAG 1024 400 0
FLAG 1584 320 0
FLAG 1136 32 0
SYMBOL res -688 96 R0
WINDOW 3 40 81 Left 2
SYMATTR Value 2K
SYMATTR InstName R1
SYMBOL res -544 -96 R0
WINDOW 0 -39 44 Left 2
WINDOW 3 -53 74 Left 2
SYMATTR InstName RC1
SYMATTR Value 6.8k
SYMBOL res -480 -96 R0
SYMATTR InstName RB1
SYMATTR Value 680k
SYMBOL res -240 -96 R0
WINDOW 0 -42 42 Left 2
WINDOW 3 -56 73 Left 2
SYMATTR InstName RB2
SYMATTR Value 680k
SYMBOL res -176 -96 R0
SYMATTR InstName RC2
SYMATTR Value 6.8K
SYMBOL res 224 -96 R0
SYMATTR InstName R4
SYMATTR Value 2K
SYMBOL cap -160 64 R90
WINDOW 0 0 32 VBottom 2
WINDOW 3 32 32 VTop 2
SYMATTR InstName C2
SYMATTR Value 3.3n
SYMBOL cap -464 64 R90
WINDOW 0 0 32 VBottom 2
WINDOW 3 32 32 VTop 2
SYMATTR InstName C1
SYMATTR Value 3.3n
SYMBOL npn -464 144 M0
SYMATTR InstName Q1
SYMATTR Value BC547B
SYMBOL npn -224 144 R0
SYMATTR InstName Q2
SYMATTR Value BC547B
SYMBOL res -80 128 R0
SYMATTR InstName R2
SYMATTR Value 2K
SYMBOL res 144 64 R90
WINDOW 0 0 56 VBottom 2
WINDOW 3 32 56 VTop 2
SYMATTR InstName R3
SYMATTR Value 75K
SYMBOL npn 176 32 R0
SYMATTR InstName Q3
SYMATTR Value BC547B
SYMBOL res 400 -16 R0
WINDOW 0 -32 35 Left 2
WINDOW 3 -45 67 Left 2
SYMATTR InstName R5
SYMATTR Value 10k
SYMBOL voltage -368 -176 R90
WINDOW 0 -32 56 VBottom 2
WINDOW 3 32 56 VTop 2
WINDOW 123 0 0 Left 0
WINDOW 39 0 0 Left 0
SYMATTR InstName V1
SYMATTR Value 9
SYMBOL res 400 144 R0
SYMATTR InstName R_set
SYMATTR Value 5k
SYMBOL diode 1440 96 R270
WINDOW 0 32 32 VTop 2
WINDOW 3 -6 23 VBottom 2
SYMATTR InstName D1
SYMATTR Value 1N4148
SYMBOL res 1568 144 R0
SYMATTR InstName R6
SYMATTR Value 100k
SYMBOL voltage 1024 176 R180
WINDOW 0 24 96 Left 2
WINDOW 3 24 16 Left 2
WINDOW 123 0 0 Left 0
WINDOW 39 0 0 Left 0
SYMATTR InstName V2
SYMATTR Value 1V
SYMBOL res 800 16 R0
SYMATTR InstName R7
SYMATTR Value 100k
SYMBOL res 800 160 R0
SYMATTR InstName R8
SYMATTR Value 10k
SYMBOL cap 560 96 R90
WINDOW 0 0 32 VBottom 2
WINDOW 3 32 32 VTop 2
SYMATTR InstName C3
SYMATTR Value 82n
SYMBOL res 896 -128 R90
WINDOW 0 0 56 VBottom 2
WINDOW 3 32 56 VTop 2
SYMATTR InstName R9
SYMATTR Value 10k
SYMBOL cap 1120 -80 R0
SYMATTR InstName C4
SYMATTR Value 10n
TEXT -688 328 Left 2 !.tran 0 0.05 0.02 0.000001
TEXT -1760 -224 Left 2 ;Green: Emitter
TEXT -1760 -184 Left 2 ;Blue: Base
TEXT -1760 -144 Left 2 ;Yellow: Collector
