Version 4
SHEET 1 880 680
WIRE -16 144 -160 144
WIRE 16 144 -16 144
WIRE 128 144 80 144
WIRE 240 144 192 144
WIRE 352 144 304 144
WIRE 464 144 416 144
WIRE 560 144 528 144
WIRE 16 176 16 160
WIRE 128 176 128 160
WIRE 128 176 16 176
WIRE 240 176 240 160
WIRE 240 176 128 176
WIRE 272 176 240 176
WIRE 352 176 352 160
WIRE 352 176 272 176
WIRE 464 176 464 160
WIRE 464 176 352 176
WIRE 272 208 272 176
WIRE -16 240 -16 144
WIRE 560 240 560 144
WIRE 560 240 -16 240
FLAG -160 144 OUT
IOPIN -160 144 Out
FLAG 272 208 0
SYMBOL Digital\\inv 16 80 R0
WINDOW 3 8 60 Invisible 2
SYMATTR InstName A1
SYMATTR Value 74HC04
SYMBOL Digital\\inv 128 80 R0
WINDOW 3 8 104 Invisible 2
SYMATTR InstName A2
SYMATTR Value 74HC04
SYMBOL Digital\\inv 240 80 R0
WINDOW 3 8 104 Invisible 2
SYMATTR InstName A3
SYMATTR Value 74HC04
SYMBOL Digital\\inv 352 80 R0
WINDOW 3 8 104 Invisible 2
SYMATTR InstName A4
SYMATTR Value 74HC04
SYMBOL Digital\\inv 464 80 R0
WINDOW 3 8 104 Invisible 2
SYMATTR InstName A5
SYMATTR Value 74HC04
TEXT -216 264 Left 2 !.inc 74hc.lib
TEXT -216 296 Left 2 !.param C=22n
TEXT -218 332 Left 2 !.tran 0 20n 10n 0.001n
TEXT -216 368 Left 2 !.ic v(out)=0
